module ls

require (
	cloud.google.com/go v0.37.1 // indirect
	github.com/denisenkom/go-mssqldb v0.0.0-20190315220205-a8ed825ac853 // indirect
	github.com/erikstmartin/go-testdb v0.0.0-20160219214506-8d10e4a1bae5 // indirect
	github.com/fasthttp/router v0.4.0
	github.com/go-sql-driver/mysql v1.4.1
	github.com/gofrs/uuid v3.2.0+incompatible // indirect
	github.com/jinzhu/gorm v1.9.2
	github.com/jinzhu/inflection v0.0.0-20180308033659-04140366298a // indirect
	github.com/jinzhu/now v1.0.0 // indirect
	github.com/kr/pretty v0.1.0 // indirect
	github.com/lib/pq v1.0.0 // indirect
	github.com/mattn/go-sqlite3 v1.10.0 // indirect
	github.com/valyala/fasthttp v1.4.0
	golang.org/x/crypto v0.0.0-20190313024323-a1f597ede03a // indirect
	gopkg.in/yaml.v2 v2.2.2
)
